PS947: Homework 4
…
Part 2: Using priors to generate some predictions

 #----------- Making predictions using tidybayes---------##
chronotype_data %>% modelr::data_grid (max_heart_rate= seq(-3, 3, 0.1), chronotype) %>%
  add_epred_draws (model, ndraws = 500) -> prior_predictions
prior_predictions

# A tibble: 61,000 × 7
# Groups:   max_heart_rate, chronotype, .row [122]
   max_heart_rate chronotype  .row .chain .iteration .draw   .epred
            <dbl> <fct>      <int>  <int>      <int> <int>    <dbl>
 1             -3 evening        1     NA         NA     1  0.423  
 2             -3 evening        1     NA         NA     2 -0.742  
 3             -3 evening        1     NA         NA     3  0.852  
 4             -3 evening        1     NA         NA     4  0.0793 
 5             -3 evening        1     NA         NA     5  1.07   
 6             -3 evening        1     NA         NA     6 -0.294  
 7             -3 evening        1     NA         NA     7 -0.00526
 8             -3 evening        1     NA         NA     8  0.784  
 9             -3 evening        1     NA         NA     9 -0.599  
10             -3 evening        1     NA         NA    10  2.03   
# ℹ 60,990 more rows
…
From the distribution of the traceplots, we can conclude that our model is fitted well.

# -------------Posterior predictions ------------###
chronotype_data %>% modelr::data_grid (max_heart_rate= seq(-3, 3, 0.1), chronotype) %>%
  add_epred_draws(model2, ndraws = 500) -> posterior_predictions
posterior_predictions

# A tibble: 61,000 × 7
# Groups:   max_heart_rate, chronotype, .row [122]
   max_heart_rate chronotype  .row .chain .iteration .draw  .epred
            <dbl> <fct>      <int>  <int>      <int> <int>   <dbl>
 1             -3 evening        1     NA         NA     1 -0.139 
 2             -3 evening        1     NA         NA     2 -0.0346
 3             -3 evening        1     NA         NA     3 -0.599 
 4             -3 evening        1     NA         NA     4  0.154 
 5             -3 evening        1     NA         NA     5  0.743 
 6             -3 evening        1     NA         NA     6  0.685 
 7             -3 evening        1     NA         NA     7 -0.891 
 8             -3 evening        1     NA         NA     8  1.85  
 9             -3 evening        1     NA         NA     9 -0.335 
10             -3 evening        1     NA         NA    10  1.08  
# ℹ 60,990 more rows
…
